<svg xmlns="http://www.w3.org/2000/svg" viewBox="0 0 3.769 6.103">
    <defs>
        <style>
            .cls-1{fill:#463f36}
        </style>
    </defs>
    <path id="ic_chevron_right_24px" d="M9.307 6l-.717.717 2.329 2.335-2.329 2.334.717.717 3.052-3.052z" class="cls-1" transform="translate(-8.59 -6)"/>
</svg>
