<svg xmlns="http://www.w3.org/2000/svg" id="logotipo" viewBox="0 0 230.911 55.923">
    <defs>
        <style>
            .cls-1{fill:#434033}
        </style>
    </defs>
    <g id="Group_94" data-name="Group 94">
        <g id="Group_93" data-name="Group 93">
            <path id="Path_169" d="M34.821 27.79c-.131 0-.359.163-.686.523a4.2 4.2 0 0 0-.621.751l-1.176 1.176a72.298 72.298 0 0 1-1.764 1.7 17.549 17.549 0 0 1-2.287 1.731 18.229 18.229 0 0 1-3.1 1.7 21.927 21.927 0 0 1-3.887 1.108 24.057 24.057 0 0 1-4.932.49A14.325 14.325 0 0 1 6.5 33.441a11.865 11.865 0 0 1-3.953-9.277v-.784a19.387 19.387 0 0 1 3.528-9.963 24.4 24.4 0 0 1 8.166-7.546 20.543 20.543 0 0 1 10.095-2.776 8.629 8.629 0 0 1 3.985.882A6.086 6.086 0 0 1 30.9 6.23a9.21 9.21 0 0 0-.261.751c-.131.327-.2.621-.261.817s-.131.457-.229.751c-.065.294-.131.588-.163.849a7.105 7.105 0 0 0-.033.849 1.471 1.471 0 0 0 .327 1.078 1.635 1.635 0 0 0 1.176.327q1.47 0 1.47-3.332a7.559 7.559 0 0 0-.426-2.678c.065-.229.2-.621.359-1.143s.327-1.013.425-1.4a5.124 5.124 0 0 0 .163-1.209q0-.294-.392-.49a1.74 1.74 0 0 0-.784-.2c-.229 0-.359.065-.392.163a.76.76 0 0 0 .033.457 1.6 1.6 0 0 1 .1.392 6.722 6.722 0 0 1-.425 1.895c-1.241-1.633-3.659-2.45-7.284-2.45A23.135 23.135 0 0 0 13.36 4.6a28.089 28.089 0 0 0-9.31 8A20.1 20.1 0 0 0 .033 23.216C0 23.608 0 23.968 0 24.327c0 4.312 1.339 7.742 4.051 10.192q4.067 3.724 11.76 3.724a26.645 26.645 0 0 0 9.8-1.993 22.953 22.953 0 0 0 8.134-5.063 3.731 3.731 0 0 0 .523-.719 7.044 7.044 0 0 0 .523-1.111 3.994 3.994 0 0 0 .229-1.078c-.003-.293-.068-.489-.199-.489z" class="cls-1" data-name="Path 169" transform="translate(0 -.808)"/>
            <path id="Path_170" d="M125.452 47.572c0-.261-.294-.425-.915-.523-.686-.065-1.209-1.045-1.568-2.907s-.751-2.809-1.209-2.842a1.3 1.3 0 0 0-1.078.49 1.824 1.824 0 0 0-.392 1.176h-.327a4.189 4.189 0 0 0-3.005 1.633 14.583 14.583 0 0 0-2.515 3.985 44.428 44.428 0 0 0-1.666 4.344 30.214 30.214 0 0 0-.877 3.272 13.132 13.132 0 0 0-.2 2.254c0 2.744.947 4.083 2.842 4.083 1.96 0 3.92-1.339 5.912-4.051a15.982 15.982 0 0 0 2.973-9.767 3.161 3.161 0 0 0 1.307-.359c.489-.266.718-.527.718-.788zm-5.814 9.473c-1.6 2.646-3.071 3.985-4.377 3.985-.915 0-1.372-.784-1.372-2.385a12.094 12.094 0 0 1 .2-2.058 33.651 33.651 0 0 1 2.483-7.056c1.339-2.973 2.515-4.475 3.528-4.475.163 0 .457.49.882 1.5a4.053 4.053 0 0 0 1.078 1.731 16.578 16.578 0 0 1-2.422 8.758z" class="cls-1" data-name="Path 170" transform="translate(-75.213 -27.809)"/>
            <path id="Path_171" d="M161.331 46.2a4.762 4.762 0 0 0-1.274.229 4.425 4.425 0 0 0-.523.2 5.2 5.2 0 0 1-.719.261c-.131.033-.392.163-.784.327-.359.163-.686.294-.915.425s-.523.261-.915.457a9.27 9.27 0 0 0-1.013.588c-.294.2-.621.425-1.013.686-.359.261-.719.523-1.013.784a12.049 12.049 0 0 0-.915.915c-.327.327-.621.686-.915 1.045a2.467 2.467 0 0 0-.588 1.568 3.026 3.026 0 0 0 1.111 2.123 13.215 13.215 0 0 0 2.385 1.895 18.384 18.384 0 0 1 2.385 1.7c.719.621 1.111 1.143 1.111 1.6 0 .784-.98 1.5-2.907 2.156a15.464 15.464 0 0 1-4.508 1.013c-.359 0-.523.2-.523.588a1 1 0 0 0 .229.653.789.789 0 0 0 .621.327 11.684 11.684 0 0 0 5.651-1.96c2.221-1.307 3.3-2.679 3.3-4.116a2.417 2.417 0 0 0-1.143-2.058 30.072 30.072 0 0 0-2.744-1.666 5.25 5.25 0 0 1-2.221-2.156 1.973 1.973 0 0 1-.229-.98c0-1.013.653-1.927 1.96-2.777a11.216 11.216 0 0 1 3.2-1.568c.98-.163 1.5-.229 1.6-.229.588 0 .882.229.882.719a6.1 6.1 0 0 1-.523 1.731 6.036 6.036 0 0 0-.523 1.8q0 .294.2.294c.425 0 1.013-.588 1.8-1.8a7.177 7.177 0 0 0 1.274-2.777c-.07-1.376-.658-1.997-1.801-1.997z" class="cls-1" data-name="Path 171" transform="translate(-100.867 -31.109)"/>
            <path id="Path_172" d="M201.274 44.367a14.933 14.933 0 0 0-2.025 1.731c-1.241 1.143-2.189 1.731-2.842 1.731-.359 0-.523-.261-.523-.817a6.282 6.282 0 0 1 .229-1.4 130.7 130.7 0 0 1 3.953-13.164 39.024 39.024 0 0 0 4.279-.261c1.5-.163 2.254-.425 2.254-.751q0-.294-1.372-.294h-4.737c1.274-3.5 2.254-5.978 2.973-7.513-.065-.294-.327-.425-.784-.425a2.76 2.76 0 0 0-2.352 1.013 14.865 14.865 0 0 0-1.8 4.148 2.127 2.127 0 0 0-.131.588.73.73 0 0 0 .1.327.744.744 0 0 1 .1.359 3.592 3.592 0 0 1-.131.817l-.2.686h-3.136a2.023 2.023 0 0 0-1.013.457c-.425.294-.621.588-.621.817 0 .294.359.425 1.111.425a20.912 20.912 0 0 0 3.267-.2q-2.989 10.682-3.136 11.172a25.8 25.8 0 0 0-1.176 4.573c0 .947.359 1.4 1.111 1.4 1.209 0 3.3-1.339 6.3-4.051.359-.163.523-.523.523-1.078.041-.192-.057-.29-.221-.29z" class="cls-1" data-name="Path 172" transform="translate(-130.293 -15.622)"/>
            <path id="Path_173" d="M237.065 59.86a6.065 6.065 0 0 0-.784.817 16.989 16.989 0 0 1-1.731 1.666 2.853 2.853 0 0 1-1.7.817c-.457 0-.686-.392-.686-1.209a26.33 26.33 0 0 1 .817-4.214 65.778 65.778 0 0 1 1.895-6.468c.033-.1.2-.2.457-.327a1.309 1.309 0 0 0 .457-.294c.033-.1.163-.392.359-.849s.359-.882.49-1.241a3.831 3.831 0 0 0 .163-.98c0-.719-.392-1.078-1.209-1.078a.915.915 0 0 0-.751.392c-.2.261-.392.392-.523.392a12.766 12.766 0 0 1-1.47-.392 7.822 7.822 0 0 0-2.058-.392 1.757 1.757 0 0 0-1.372.49l-.523.392h-.131c-.98 0-2.123 1.045-3.43 3.1a34.818 34.818 0 0 0-3.3 6.925 19.972 19.972 0 0 0-1.339 6.076q0 1.764 1.176 1.764c1.895 0 5-3.005 9.375-9.016a32.852 32.852 0 0 0-1.6 7.578c.131.817.523 1.209 1.209 1.209a1.975 1.975 0 0 0 .719-.131 5.214 5.214 0 0 0 .751-.327 5.473 5.473 0 0 0 .849-.523c.327-.229.588-.425.817-.588s.49-.392.817-.653c.294-.261.555-.49.719-.621s.359-.327.621-.555a4.477 4.477 0 0 0 .425-.425 1.327 1.327 0 0 0 .49-1.111c.099-.159.067-.224.001-.224zm-6.5-4.149a48.06 48.06 0 0 1-3.43 4.246c-1.731 1.993-2.94 2.973-3.626 2.973-.327 0-.49-.261-.49-.817 0-1.8.915-4.508 2.777-8.134s3.2-5.553 3.985-5.782a6.077 6.077 0 0 1 1.47-.2 9.348 9.348 0 0 1 1.209.1 8.331 8.331 0 0 0 1.013.1h.131c.163 0 .229.1.229.294a9.535 9.535 0 0 1-1.013 3.005 36.688 36.688 0 0 1-2.255 4.216z" class="cls-1" data-name="Path 173" transform="translate(-148.608 -31.311)"/>
            <path id="Path_174" d="M311.571 47.8c-2.581 0-4.312.849-5.226 2.581-.2.392-.947 1.862-2.254 4.442h-.327c-.555 0-.817.163-.817.523 0 .392.229.653.719.784a16.265 16.265 0 0 1-.621 2.156 32.693 32.693 0 0 0-.915 3.626 6.469 6.469 0 0 0-.13 1.273 2.926 2.926 0 0 0 1.013 2.515 3.645 3.645 0 0 0 2.221.751c1.013 0 2.417-.817 4.181-2.417 1.8-1.6 2.679-2.875 2.679-3.789 0-.261-.131-.392-.327-.392-.131 0-.523.425-1.209 1.307a24.508 24.508 0 0 1-2.385 2.581 3.9 3.9 0 0 1-2.385 1.307q-1.47 0-1.47-1.96a18.727 18.727 0 0 1 1.6-6.435c.033 0 .261 0 .653.033s.784.033 1.111.033a11.232 11.232 0 0 0 1.764-.131 15.829 15.829 0 0 0 2.091-.425 3.766 3.766 0 0 0 1.895-1.078 2.487 2.487 0 0 0 .719-1.829 13.539 13.539 0 0 0-.294-2.45c-.424-2.026-1.175-3.006-2.286-3.006zm-.392 7.121a6.876 6.876 0 0 1-2.875.425c-.327 0-.719 0-1.176-.033s-.719-.033-.784-.033a23.232 23.232 0 0 1 1.96-3.724c.882-1.4 1.666-2.091 2.319-2.091a.969.969 0 0 1 .653.327 3.216 3.216 0 0 1 .556 1.208 7.866 7.866 0 0 1 .229 2.091 1.821 1.821 0 0 1-.882 1.83z" class="cls-1" data-name="Path 174" transform="translate(-203.351 -32.186)"/>
            <path id="Path_175" d="M403.359 22.506a29.512 29.512 0 0 0-4.246-1.274 24.79 24.79 0 0 0-3.822-.523 27.816 27.816 0 0 0 3.3-1.078c1.045-.425 2.189-.98 3.43-1.633a9.073 9.073 0 0 0 2.94-2.45 5.1 5.1 0 0 0 1.111-3.136 5.332 5.332 0 0 0-1.307-3.463 10.639 10.639 0 0 0-3.4-2.744 31.871 31.871 0 0 0-3.953-1.829c-1.241-.457-2.45-.882-3.659-1.209a20.987 20.987 0 0 1 1.4-2.385.12.12 0 0 1 .033-.1c0-.033.033-.065.033-.1q0-.588-1.372-.588a3.4 3.4 0 0 0-.49.065c-.2.033-.359.1-.523.131a2.009 2.009 0 0 1-.425.033h-.1a6.268 6.268 0 0 0-1.47 2.287 50.029 50.029 0 0 0-10.379-1.269 23.428 23.428 0 0 0-4.671.425 18 18 0 0 0-4.246 1.4 7.536 7.536 0 0 0-3.234 2.907 8.631 8.631 0 0 0-1.209 4.606 12.168 12.168 0 0 0 1.045 4.377 16.386 16.386 0 0 0 2.875 4.671 5.014 5.014 0 0 0 3.626 2.058c.588 0 .882-.2.882-.621a3.825 3.825 0 0 0-.523-1.437c-.327-.686-.621-1.045-.849-1.045q-.294 0-.49.98c-3.169-2.94-4.736-6.043-4.736-9.375a6.958 6.958 0 0 1 1.013-3.822 6.334 6.334 0 0 1 2.744-2.417 16.858 16.858 0 0 1 3.561-1.176 21.5 21.5 0 0 1 3.887-.359 44.093 44.093 0 0 1 10.061 1.4 125.024 125.024 0 0 0-6.206 15.549c-1.993 5.978-3.005 10.78-3.005 14.34-.163-.065-.523-.294-1.111-.653-.555-.359-1.111-.719-1.6-1.013a3.559 3.559 0 0 0-.882-.457c-.163 0-.229.1-.229.294 0 .523.425 1.078 1.307 1.666a17.967 17.967 0 0 0 2.483 1.4c0 .229.033.523.065.882a3.861 3.861 0 0 0 .327 1.111c.163.392.392.588.621.588s.327-.294.327-.882a5.088 5.088 0 0 0-.033-.653 4.875 4.875 0 0 1-.033-.621 30.575 30.575 0 0 0 10.453 1.6c6.043 0 10.714-1.731 14.013-5.161a5.325 5.325 0 0 0 1.7-3.659 4.91 4.91 0 0 0-1.437-3.43 10.04 10.04 0 0 0-3.597-2.208zM392.971 4.54H393a31.4 31.4 0 0 1 3.071 1.078 38.49 38.49 0 0 1 3.43 1.6 10.186 10.186 0 0 1 3.038 2.352 4.427 4.427 0 0 1 1.176 2.907 4.119 4.119 0 0 1-1.6 3.136 11.994 11.994 0 0 1-4.083 2.352 45.466 45.466 0 0 1-4.443 1.437c-1.274.327-2.515.621-3.691.817-.294.065-.915.131-1.829.229a9.416 9.416 0 0 0-2.156.359 89.346 89.346 0 0 1 7.058-16.267zm13.164 26.1l-2.058 2.06c-2.156 2.189-5.912 3.267-11.335 3.267a28.251 28.251 0 0 1-10.387-1.667 71.921 71.921 0 0 1 3.038-11.792h.065c.2 0 .751-.033 1.7-.131.915-.1 1.895-.2 2.907-.327 1.013-.1 1.7-.163 2.058-.163a24.288 24.288 0 0 1 3.887.327 34.355 34.355 0 0 1 4.573 1.013 9.912 9.912 0 0 1 3.985 2.123 4.482 4.482 0 0 1 1.6 3.4c-.033 1.237-.033 1.89-.033 1.89z" class="cls-1" data-name="Path 175" transform="translate(-247.186)"/>
            <path id="Path_176" d="M512.165 59.86a6.07 6.07 0 0 0-.784.817 16.985 16.985 0 0 1-1.731 1.666 2.853 2.853 0 0 1-1.7.817c-.457 0-.686-.392-.686-1.209a26.33 26.33 0 0 1 .817-4.214 65.761 65.761 0 0 1 1.895-6.468c.033-.1.2-.2.457-.327a1.309 1.309 0 0 0 .457-.294c.033-.1.163-.392.359-.849s.359-.882.49-1.241a3.831 3.831 0 0 0 .163-.98c0-.719-.392-1.078-1.209-1.078a.915.915 0 0 0-.751.392c-.229.261-.392.392-.523.392a12.766 12.766 0 0 1-1.47-.392 7.822 7.822 0 0 0-2.058-.392 1.757 1.757 0 0 0-1.372.49l-.523.392h-.131c-.98 0-2.123 1.045-3.43 3.1a34.817 34.817 0 0 0-3.3 6.925 19.972 19.972 0 0 0-1.339 6.076q0 1.764 1.176 1.764c1.895 0 5-3.005 9.375-9.016a32.852 32.852 0 0 0-1.6 7.578c.131.817.523 1.209 1.209 1.209a1.975 1.975 0 0 0 .719-.131 5.212 5.212 0 0 0 .751-.327 5.472 5.472 0 0 0 .849-.523c.327-.229.588-.425.817-.588s.49-.392.817-.653c.294-.261.555-.49.719-.621s.359-.327.621-.555a4.481 4.481 0 0 0 .425-.425 1.326 1.326 0 0 0 .49-1.111c.099-.159.067-.224.001-.224zm-6.465-4.148a48.064 48.064 0 0 1-3.43 4.246c-1.731 1.993-2.94 2.973-3.626 2.973-.327 0-.49-.261-.49-.817 0-1.8.915-4.508 2.777-8.134s3.2-5.553 3.985-5.782a6.076 6.076 0 0 1 1.47-.2 9.347 9.347 0 0 1 1.209.1 8.331 8.331 0 0 0 1.013.1h.131c.163 0 .229.1.229.294a9.535 9.535 0 0 1-1.013 3.005q-1.081 2.255-2.255 4.215z" class="cls-1" data-name="Path 176" transform="translate(-333.845 -31.311)"/>
            <path id="Path_177" d="M559.211 49.4a5.22 5.22 0 0 0 1.111-3.071q0-1.47-1.176-1.47c-1.47 0-3.332 1.5-5.553 4.475a57.235 57.235 0 0 0-4.965 7.611c.261-1.176.621-2.45 1.078-3.855s.882-2.548 1.241-3.463.784-1.895 1.209-2.94.686-1.6.719-1.7q-.1-.392-.686-.392a2.663 2.663 0 0 0-2.352 1.111 14.179 14.179 0 0 0-1.6 4.181 1.355 1.355 0 0 0-.1.523.87.87 0 0 0 .1.392.9.9 0 0 1 .1.425 2.859 2.859 0 0 1-.1.784l-.49 2.058c-.294 1.339-.784 3.365-1.5 6.043-.327.131-.588.555-.817 1.274a8.95 8.95 0 0 0-.327 2.385.443.443 0 0 0 .425.229 2.179 2.179 0 0 0 1.078-.392 3.241 3.241 0 0 0 .915-.784 43.523 43.523 0 0 1 4.965-10.29c2.221-3.528 3.92-5.259 5.063-5.259.163 0 .229.131.229.327a5.885 5.885 0 0 1-.457 1.6 8.334 8.334 0 0 0-.457 1.372.26.26 0 0 0 .294.294 1.945 1.945 0 0 0 1.013-.523 2.944 2.944 0 0 0 1.04-.945z" class="cls-1" data-name="Path 177" transform="translate(-367.041 -30.031)"/>
            <path id="Path_178" d="M600.722 46.331q0-1.47-1.176-1.47c-1.47 0-3.332 1.5-5.553 4.475a54.107 54.107 0 0 0-4.965 7.611c.261-1.176.621-2.45 1.078-3.855s.882-2.548 1.241-3.463.784-1.895 1.209-2.94.686-1.6.719-1.7q-.1-.392-.686-.392a2.663 2.663 0 0 0-2.352 1.111 14.178 14.178 0 0 0-1.6 4.181 1.353 1.353 0 0 0-.1.523.869.869 0 0 0 .1.392.905.905 0 0 1 .1.425 2.862 2.862 0 0 1-.1.784l-.49 2.058c-.294 1.339-.784 3.365-1.5 6.043-.327.131-.588.555-.817 1.274a7.8 7.8 0 0 0-.327 2.385.443.443 0 0 0 .425.229 2.179 2.179 0 0 0 1.072-.391 3.24 3.24 0 0 0 .915-.784 43.524 43.524 0 0 1 4.965-10.29c2.221-3.528 3.92-5.259 5.063-5.259.163 0 .229.131.229.327a5.884 5.884 0 0 1-.457 1.6 8.341 8.341 0 0 0-.457 1.372.26.26 0 0 0 .294.294 1.946 1.946 0 0 0 1.013-.523 5.272 5.272 0 0 0 1.045-1.045 4.745 4.745 0 0 0 1.112-2.972z" class="cls-1" data-name="Path 178" transform="translate(-394.244 -30.031)"/>
            <path id="Path_179" d="M641.852 47.572c0-.261-.294-.425-.915-.523-.686-.065-1.209-1.045-1.568-2.907s-.751-2.809-1.209-2.842a1.3 1.3 0 0 0-1.078.49 1.824 1.824 0 0 0-.392 1.176h-.327a4.189 4.189 0 0 0-3.005 1.633 14.584 14.584 0 0 0-2.515 3.985 44.425 44.425 0 0 0-1.666 4.344 30.224 30.224 0 0 0-.877 3.272 13.13 13.13 0 0 0-.2 2.254c0 2.744.947 4.083 2.842 4.083 1.96 0 3.92-1.339 5.912-4.051a15.982 15.982 0 0 0 2.973-9.767 3.162 3.162 0 0 0 1.307-.359c.457-.266.718-.527.718-.788zm-5.847 9.473c-1.6 2.646-3.071 3.985-4.377 3.985-.915 0-1.372-.784-1.372-2.385a12.1 12.1 0 0 1 .2-2.058 33.655 33.655 0 0 1 2.483-7.056c1.339-2.973 2.515-4.475 3.528-4.475.163 0 .457.49.882 1.5a4.053 4.053 0 0 0 1.078 1.731 16.286 16.286 0 0 1-2.422 8.758z" class="cls-1" data-name="Path 179" transform="translate(-422.929 -27.809)"/>
            <path id="Path_180" d="M677.631 46.2a4.762 4.762 0 0 0-1.274.229 2.887 2.887 0 0 0-.523.2 5.2 5.2 0 0 1-.719.261c-.131.033-.392.163-.784.327-.359.163-.686.294-.915.425s-.523.261-.915.457a9.267 9.267 0 0 0-1.013.588c-.294.2-.621.425-1.013.686-.359.261-.719.523-1.013.784a12.044 12.044 0 0 0-.915.915c-.327.327-.621.686-.915 1.045a2.467 2.467 0 0 0-.588 1.568 3.026 3.026 0 0 0 1.111 2.123 13.217 13.217 0 0 0 2.385 1.895 18.385 18.385 0 0 1 2.385 1.7c.719.621 1.111 1.143 1.111 1.6 0 .784-.98 1.5-2.907 2.156a15.463 15.463 0 0 1-4.508 1.013c-.359 0-.523.2-.523.588a1 1 0 0 0 .229.653.79.79 0 0 0 .621.327 11.684 11.684 0 0 0 5.651-1.96c2.189-1.307 3.3-2.679 3.3-4.116a2.417 2.417 0 0 0-1.143-2.058 30.064 30.064 0 0 0-2.744-1.666 5.249 5.249 0 0 1-2.221-2.156 1.972 1.972 0 0 1-.229-.98c0-1.013.653-1.927 1.96-2.777a11.215 11.215 0 0 1 3.2-1.568c.98-.163 1.5-.229 1.6-.229.588 0 .882.229.882.719a6.1 6.1 0 0 1-.523 1.731 6.036 6.036 0 0 0-.523 1.8q0 .294.2.294c.425 0 1.013-.588 1.8-1.8a7.176 7.176 0 0 0 1.274-2.777c-.037-1.376-.625-1.997-1.801-1.997z" class="cls-1" data-name="Path 180" transform="translate(-448.516 -31.109)"/>
        </g>
    </g>
    <g id="Group_95" data-name="Group 95" transform="translate(39.492 45.078)">
        <path id="Path_181" d="M127.564 141.923a3.757 3.757 0 0 1-3.757 3.757h-1.993v3.3h-.914V138.2h2.907a3.709 3.709 0 0 1 3.757 3.723zm-.915 0a2.844 2.844 0 0 0-2.842-2.842h-1.993v5.651h1.993a2.8 2.8 0 0 0 2.842-2.809z" class="cls-1" data-name="Path 181" transform="translate(-120.9 -138.134)"/>
        <path id="Path_182" d="M176.615 139.015v3.593h4.867v.915h-4.867v4.442h4.867v.915H175.7V138.1h5.782v.915z" class="cls-1" data-name="Path 182" transform="translate(-157.799 -138.067)"/>
        <path id="Path_183" d="M234.072 148.98h-1.111l-2.287-3.3h-1.96v3.3h-.914V138.2h2.907a3.761 3.761 0 0 1 1.013 7.382zm-3.4-4.214a2.842 2.842 0 1 0 0-5.684h-1.993v5.651h1.993z" class="cls-1" data-name="Path 183" transform="translate(-192.881 -138.135)"/>
        <path id="Path_184" d="M283.443 148a2.653 2.653 0 0 1-1.111-2.091h.915a1.792 1.792 0 0 0 .751 1.372 2.9 2.9 0 0 0 1.764.621 2.306 2.306 0 0 0 2.515-1.993c0-1.045-.98-1.437-2.581-1.927a7.943 7.943 0 0 1-2.221-.915 2.406 2.406 0 0 1-1.176-2.123 3.229 3.229 0 0 1 3.43-2.94 3.785 3.785 0 0 1 2.319.817 2.653 2.653 0 0 1 1.111 2.091h-.915a1.792 1.792 0 0 0-.751-1.372 2.9 2.9 0 0 0-1.764-.621 2.306 2.306 0 0 0-2.515 1.993c0 1.209 1.045 1.633 2.744 2.123a8.742 8.742 0 0 1 2.123.849 2.228 2.228 0 0 1 1.111 1.96 3.229 3.229 0 0 1-3.43 2.94 3.393 3.393 0 0 1-2.319-.784z" class="cls-1" data-name="Path 184" transform="translate(-229.578 -138)"/>
        <path id="Path_185" d="M337.8 148.88V138.1h.915v10.78z" class="cls-1" data-name="Path 185" transform="translate(-266.949 -138.067)"/>
        <path id="Path_186" d="M380.128 138.1l4.279 10.78h-.98l-1.307-3.3h-4.835l-1.307 3.3H375l4.279-10.78zm1.633 6.6l-2.061-5.2-2.058 5.194z" class="cls-1" data-name="Path 186" transform="translate(-291.997 -138.067)"/>
        <path id="Path_187" d="M445.974 138.1v10.78h-.98l-5.88-9.212v9.212h-.914V138.1h1.013l5.88 9.212V138.1z" class="cls-1" data-name="Path 187" transform="translate(-334.553 -138.067)"/>
        <path id="Path_188" d="M501.528 138.1l4.279 10.78h-.98l-1.307-3.3h-4.834l-1.307 3.3h-.98l4.279-10.78zm1.6 6.6l-2.058-5.194-2.058 5.194z" class="cls-1" data-name="Path 188" transform="translate(-373.742 -138.067)"/>
        <path id="Path_189" d="M560.543 148a2.653 2.653 0 0 1-1.111-2.091h.915a1.792 1.792 0 0 0 .751 1.372 2.9 2.9 0 0 0 1.764.621 2.306 2.306 0 0 0 2.515-1.993c0-1.045-.98-1.437-2.581-1.927a7.942 7.942 0 0 1-2.221-.915 2.406 2.406 0 0 1-1.176-2.123 3.229 3.229 0 0 1 3.43-2.94 3.95 3.95 0 0 1 2.352.817 2.652 2.652 0 0 1 1.111 2.091h-.915a1.792 1.792 0 0 0-.751-1.372 2.9 2.9 0 0 0-1.764-.621 2.306 2.306 0 0 0-2.515 1.993c0 1.209 1.045 1.633 2.744 2.123a8.742 8.742 0 0 1 2.123.849 2.228 2.228 0 0 1 1.111 1.96 3.229 3.229 0 0 1-3.43 2.94 3.422 3.422 0 0 1-2.352-.784z" class="cls-1" data-name="Path 189" transform="translate(-416.162 -138)"/>
    </g>
</svg>
